{
    "name": "Assessment",
    "alias": "assessment",
    "description": "",
    "keywords": [],
    "priority": 0,
    "providers": [
        "Modules\\Assessment\\Providers\\AssessmentServiceProvider",
        "Modules\\Assessment\\Providers\\EventServiceProvider"
    ],
    "aliases": {},
    "files": [],
    "requires": []
}
