{
    "name": "Committee",
    "alias": "committee",
    "description": "",
    "keywords": [],
    "priority": 0,
    "providers": [
        "Modules\\Committee\\Providers\\CommitteeServiceProvider"
    ],
    "aliases": {},
    "files": [],
    "requires": []
}
